{
  "users": [],
  "products": [
    {
      "id": 1,
      "name": "Apple iPhone X (Silver, 256GB)",
      "code": "PROD-1",
      "description": "Apple's vision has always been to create an iPhone that is entirely screen. One so immersive the device itself disappears into the experience. And so intelligent it can respond to a tap, your voice and even a glance. With iPhone X, that vision is now a reality. With iPhone X, the device is the display. An all‑new 5.8‑inch Super Retina screen fills the hand and dazzles the eyes.",
      "stockCount": 10,
      "price": 1500,
      "imageUrl": "https://cdn.shopify.com/s/files/1/1902/5493/products/xgray_00daa49a-63a8-461a-bdcb-7414f68ed64c_480x480.jpg"
    },
    {
      "id": 2,
      "name": "Samsung Galaxy S9 (Midnight Black, 64 GB)",
      "code": "PROD-2",
      "description": "Infinity Display. The phone with an uninterrupted display. See photos and videos as you want to see them: showcased on a beautiful edge-to-edge screen. Surround sound stereo speakers. The phone that surrounds you in Dolby Atmos sound on stereo speakers tuned by AKG.",
      "stockCount": 20,
      "price": 1000,
      "imageUrl": "https://www.satugadget.com.my/content/images/thumbs/0008889_samsung-galaxy-s9-plus-256gb-original-malaysia-set_600.jpeg"
    },
    {
      "id": 3,
      "name": "OnePlus 6",
      "code": "PROD-3",
      "description": "The OnePlus 6 comes with a 19:9 Full Optic AMOLED display, 20+16 MP dual primary camera, 6/8 GB of RAM; up to 128 GB memory, Snapdragon 845 processor and much more",
      "stockCount": 15,
      "price": 1000,
      "imageUrl": "https://image2.geekbuying.com/ggo_pic/2018-05-18/201805180182161do9vyr4.jpg"
    },
    {
      "id": 4,
      "name": "OnePlus 5",
      "code": "PROD-4",
      "description": "The OnePlus 5 comes with a 19:9 Full Optic AMOLED display, 20+16 MP dual primary camera, 6/8 GB of RAM; up to 128 GB memory, Snapdragon 845 processor and much more",
      "stockCount": 15,
      "price": 1000,
      "imageUrl": "https://image2.geekbuying.com/ggo_pic/2018-05-18/201805180182161do9vyr4.jpg"
    },
    {
      "id": 5,
      "name": "Redmi 5",
      "code": "PROD-5",
      "description": "The 14.4cm(5.7) display with rounded corner design gives an ergonomically curved for better hand feel. Precise polished cover glass edge reduces the risk of damaging display by 30 percent. Reinforced corner design protects the display when the corner hits the ground.",
      "stockCount": 21,
      "price": 220,
      "imageUrl": "http://cdn.shopify.com/s/files/1/1902/5493/products/5plusgold_1024x1024.jpg?v=1519376735"
    },
    {
      "id": 6,
      "name": "Moto E5 plus",
      "code": "PROD-6",
      "description": "The all new Moto E5 Plus blends power with style, packing a massive 5000 mAh battery with rapid charging in a beautiful glossy finish body. Enjoy all your videos on an immersive Max Vision screen with superb sound quality. Coming from Motorola, a pioneer of mobile phones, you can be sure of its high quality.",
      "stockCount": 21,
      "price": 200,
      "imageUrl": "https://1.bp.blogspot.com/-RvZ-z7zRMY8/WxdZczf-_9I/AAAAAAAAEQw/4PKKARIE428ZRgznZCX-sHoKB9fllKmFQCLcBGAs/s1600/cricket-wireless-moto-e5-cruise.jpg"
    },
    {
      "id": 7,
      "name": "Honor 7C Blue",
      "code": "PROD-7",
      "description": "Honor 7C is here to redefine the budget segment smartphones with high end specs, It is the most affordable dual camera phone powered by Qualcomm Snapdragon Octa core chipset.",
      "stockCount": 5,
      "price": 150,
      "imageUrl": "https://mobileshop.com.eg/image/cache/data/All%20mobiles/Honor/17-62-1008-800x800.jpg"
    },
    {
      "id": 8,
      "name": "Samsung Galaxy Note 8",
      "code": "PROD-8",
      "description": "See photos and videos as you want to see them: showcased on a beautiful edge-to-edge screen. Surround sound stereo speakers.",
      "stockCount": 13,
      "price": 600,
      "imageUrl": "https://img1.cgtrader.com/items/779215/334cbaaa71/large/samsung-galaxy-note-8-midnight-black-3d-model-max-obj-3ds-mtl-mat.jpg"
    },
    {
      "id": 9,
      "name": "Moto G6",
      "code": "PROD-9",
      "description": "Say hello to moto g6. With a 14.5 cm (5.7) Full HD+ Max Vision display, dual rear cameras with creative camera system, an all-day battery with TurboPowerTM charging, and a gorgeous 3D glass back, it’s designed with you in mind!",
      "stockCount": 13,
      "price": 250,
      "imageUrl": "https://images-na.ssl-images-amazon.com/images/I/61uoJeYje6L._SX569_.jpg"
    },
    {
      "id": 10,
      "name": "Vivo V9",
      "code": "PROD-10",
      "description": "Designed for the millennials seeking the best smartphone experience, Vivo V9 is a perfect combination of classic design and innovative features for a superior mobility experience.",
      "stockCount": 13,
      "price": 350,
      "imageUrl": "https://www.gizmochina.com/wp-content/uploads/2018/03/Vivo-V9-600x600.jpg"
    }
  ],
  "carts": [],
  "orders": []
}